{
    "defaultSeverity": "error",
    "extends": [
        "tslint:recommended"
    ],
    "jsRules": {},
    "rules": {
        "no-unused-expression": false,
        "no-empty": false,
        "variable-name": [
            true,
            "allow-snake-case"
        ]
    },
    "rulesDirectory": []
}