{
    "env": "staging",
    "ip": "127.0.0.1",
    "port": 4003,
    "host": "localhost",
    "db": {
        "host": "mongodb",
        "name": "notify",
        "backupName": "notify_backup",
        "auth": {
            "user": "",
            "password": ""
        }
    },
    "baseUrl": "",
    "basePath": "/api/v1",
    "oauthSalt": "$cbh0J&*VO%mQoe",
    "oauthTTL": 900,
    "source": {
        "client": "BCI",
        "app": ""
    }
}